<svg id="组_945" data-name="组 945" xmlns="http://www.w3.org/2000/svg" width="16" height="16.002" viewBox="0 0 16 16.002">
  <g id="组_943" data-name="组 943" transform="translate(1.119 0)">
    <path id="路径_745" data-name="路径 745" d="M-2022.161,4166.287h-4.7l1.846-2.238h2.853a2.408,2.408,0,0,0,2.406-2.405,2.409,2.409,0,0,0-2.406-2.406h-8.391L-2032.4,4157h10.238a4.648,4.648,0,0,1,4.643,4.644A4.648,4.648,0,0,1-2022.161,4166.287Z" transform="translate(2032.399 -4157)"/>
  </g>
  <g id="组_944" data-name="组 944" transform="translate(0 3.552)">
    <path id="路径_746" data-name="路径 746" d="M-2028.543,4196.373l-4.543-3.161h-3.149a4.648,4.648,0,0,1-4.643-4.643,4.649,4.649,0,0,1,4.643-4.644h4.7l-1.846,2.237h-2.853a2.408,2.408,0,0,0-2.406,2.407,2.408,2.408,0,0,0,2.406,2.4h3.4a1.116,1.116,0,0,1,.48.108l7.447,5.291Z" transform="translate(2040.879 -4183.925)"/>
  </g>
</svg>
